simulation/qsim/Clock.msim.vcd
$comment
	File created using the following command:
		vcd file Clock.msim.vcd -direction
$end
$date
	Sat Jun 29 23:45:21 2019
$end
$version
	ModelSim Version 10.5b
$end
$timescale
	1ps
$end

$scope module Clock_vlg_vec_tst $end
$var reg 1 ! clk $end
$var reg 1 " enBtn $end
$var reg 1 # hourBtn $end
$var reg 1 $ minBtn $end
$var reg 1 % rst $end
$var reg 1 & secBtn $end
$var wire 1 ' digSel [7] $end
$var wire 1 ( digSel [6] $end
$var wire 1 ) digSel [5] $end
$var wire 1 * digSel [4] $end
$var wire 1 + digSel [3] $end
$var wire 1 , digSel [2] $end
$var wire 1 - digSel [1] $end
$var wire 1 . digSel [0] $end
$var wire 1 / segSel [7] $end
$var wire 1 0 segSel [6] $end
$var wire 1 1 segSel [5] $end
$var wire 1 2 segSel [4] $end
$var wire 1 3 segSel [3] $end
$var wire 1 4 segSel [2] $end
$var wire 1 5 segSel [1] $end
$var wire 1 6 segSel [0] $end

$scope module i1 $end
$var wire 1 7 gnd $end
$var wire 1 8 vcc $end
$var wire 1 9 unknown $end
$var tri1 1 : devclrn $end
$var tri1 1 ; devpor $end
$var tri1 1 < devoe $end
$var wire 1 = enBtn~input_o $end
$var wire 1 > secBtn~input_o $end
$var wire 1 ? minBtn~input_o $end
$var wire 1 @ hourBtn~input_o $end
$var wire 1 A clk~input_o $end
$var wire 1 B rst~input_o $end
$var wire 1 C segSel[0]~output_o $end
$var wire 1 D segSel[1]~output_o $end
$var wire 1 E segSel[2]~output_o $end
$var wire 1 F segSel[3]~output_o $end
$var wire 1 G segSel[4]~output_o $end
$var wire 1 H segSel[5]~output_o $end
$var wire 1 I segSel[6]~output_o $end
$var wire 1 J segSel[7]~output_o $end
$var wire 1 K digSel[0]~output_o $end
$var wire 1 L digSel[1]~output_o $end
$var wire 1 M digSel[2]~output_o $end
$var wire 1 N digSel[3]~output_o $end
$var wire 1 O digSel[4]~output_o $end
$var wire 1 P digSel[5]~output_o $end
$var wire 1 Q digSel[6]~output_o $end
$var wire 1 R digSel[7]~output_o $end
$upscope $end
$upscope $end
$enddefinitions $end
#0
$dumpvars
0!
0"
0#
0$
0%
0&
0.
1-
1,
1+
1*
1)
1(
1'
06
05
04
03
02
01
10
1/
07
18
x9
1:
1;
1<
0=
0>
0?
0@
0A
0B
0C
0D
0E
0F
0G
0H
1I
1J
0K
1L
1M
1N
1O
1P
1Q
1R
$end
#500
1!
1A
#1000
0!
0A
#1500
1!
1A
#2000
0!
0A
#2500
1!
1A
#3000
0!
0A
#3500
1!
1A
#4000
0!
0A
#4500
1!
1A
#5000
0!
0A
#5500
1!
1A
#6000
0!
0A
#6500
1!
1A
#7000
0!
0A
#7500
1!
1A
#8000
0!
0A
#8500
1!
1A
#9000
0!
0A
#9500
1!
1A
#10000
1"
0!
1=
0A
#10500
1!
1A
#11000
0!
0A
#11500
1!
1A
#12000
0!
0A
#12500
1!
1A
#13000
0!
0A
#13500
1!
1A
#14000
0!
0A
#14500
1!
1A
#15000
0!
0A
#15500
1!
1A
#16000
0!
0A
#16500
1!
1A
#17000
0!
0A
#17500
1!
1A
#18000
0!
0A
#18500
1!
1A
#19000
0!
0A
#19500
1!
1A
#20000
0"
0!
0=
0A
#20500
1!
1A
#21000
0!
0A
#21500
1!
1A
#22000
0!
0A
#22500
1!
1A
#23000
0!
0A
#23500
1!
1A
#24000
0!
0A
#24500
1!
1A
#25000
0!
0A
#25500
1!
1A
#26000
0!
0A
#26500
1!
1A
#27000
0!
0A
#27500
1!
1A
#28000
0!
0A
#28500
1!
1A
#29000
0!
0A
#29500
1!
1A
#30000
0!
0A
#30500
1!
1A
#31000
0!
0A
#31500
1!
1A
#32000
0!
0A
#32500
1!
1A
#33000
0!
0A
#33500
1!
1A
#34000
0!
0A
#34500
1!
1A
#35000
0!
0A
#35500
1!
1A
#36000
0!
0A
#36500
1!
1A
#37000
0!
0A
#37500
1!
1A
#38000
0!
0A
#38500
1!
1A
#39000
0!
0A
#39500
1!
1A
#40000
0!
0A
#40500
1!
1A
#41000
0!
0A
#41500
1!
1A
#42000
0!
0A
#42500
1!
1A
#43000
0!
0A
#43500
1!
1A
#44000
0!
0A
#44500
1!
1A
#45000
0!
0A
#45500
1!
1A
#46000
0!
0A
#46500
1!
1A
#47000
0!
0A
#47500
1!
1A
#48000
0!
0A
#48500
1!
1A
#49000
0!
0A
#49500
1!
1A
#50000
0!
0A
#50500
1!
1A
#51000
0!
0A
#51500
1!
1A
#52000
0!
0A
#52500
1!
1A
#53000
0!
0A
#53500
1!
1A
#54000
0!
0A
#54500
1!
1A
#55000
0!
0A
#55500
1!
1A
#56000
0!
0A
#56500
1!
1A
#57000
0!
0A
#57500
1!
1A
#58000
0!
0A
#58500
1!
1A
#59000
0!
0A
#59500
1!
1A
#60000
0!
0A
#60500
1!
1A
#61000
0!
0A
#61500
1!
1A
#62000
0!
0A
#62500
1!
1A
#63000
0!
0A
#63500
1!
1A
#64000
0!
0A
#64500
1!
1A
#65000
0!
0A
#65500
1!
1A
#66000
0!
0A
#66500
1!
1A
#67000
0!
0A
#67500
1!
1A
#68000
0!
0A
#68500
1!
1A
#69000
0!
0A
#69500
1!
1A
#70000
0!
0A
#70500
1!
1A
#71000
0!
0A
#71500
1!
1A
#72000
0!
0A
#72500
1!
1A
#73000
0!
0A
#73500
1!
1A
#74000
0!
0A
#74500
1!
1A
#75000
0!
0A
#75500
1!
1A
#76000
0!
0A
#76500
1!
1A
#77000
0!
0A
#77500
1!
1A
#78000
0!
0A
#78500
1!
1A
#79000
0!
0A
#79500
1!
1A
#80000
0!
0A
#80500
1!
1A
#81000
0!
0A
#81500
1!
1A
#82000
0!
0A
#82500
1!
1A
#83000
0!
0A
#83500
1!
1A
#84000
0!
0A
#84500
1!
1A
#85000
0!
0A
#85500
1!
1A
#86000
0!
0A
#86500
1!
1A
#87000
0!
0A
#87500
1!
1A
#88000
0!
0A
#88500
1!
1A
#89000
0!
0A
#89500
1!
1A
#90000
0!
0A
#90500
1!
1A
#91000
0!
0A
#91500
1!
1A
#92000
0!
0A
#92500
1!
1A
#93000
0!
0A
#93500
1!
1A
#94000
0!
0A
#94500
1!
1A
#95000
0!
0A
#95500
1!
1A
#96000
0!
0A
#96500
1!
1A
#97000
0!
0A
#97500
1!
1A
#98000
0!
0A
#98500
1!
1A
#99000
0!
0A
#99500
1!
1A
#100000
0!
0A
#100500
1!
1A
#101000
0!
0A
#101500
1!
1A
#102000
0!
0A
#102500
1!
1A
#103000
0!
0A
#103500
1!
1A
#104000
0!
0A
#104500
1!
1A
#105000
0!
0A
#105500
1!
1A
#106000
0!
0A
#106500
1!
1A
#107000
0!
0A
#107500
1!
1A
#108000
0!
0A
#108500
1!
1A
#109000
0!
0A
#109500
1!
1A
#110000
0!
0A
#110500
1!
1A
#111000
0!
0A
#111500
1!
1A
#112000
0!
0A
#112500
1!
1A
#113000
0!
0A
#113500
1!
1A
#114000
0!
0A
#114500
1!
1A
#115000
0!
0A
#115500
1!
1A
#116000
0!
0A
#116500
1!
1A
#117000
0!
0A
#117500
1!
1A
#118000
0!
0A
#118500
1!
1A
#119000
0!
0A
#119500
1!
1A
#120000
0!
0A
#120500
1!
1A
#121000
0!
0A
#121500
1!
1A
#122000
0!
0A
#122500
1!
1A
#123000
0!
0A
#123500
1!
1A
#124000
0!
0A
#124500
1!
1A
#125000
0!
0A
#125500
1!
1A
#126000
0!
0A
#126500
1!
1A
#127000
0!
0A
#127500
1!
1A
#128000
0!
0A
#128500
1!
1A
#129000
0!
0A
#129500
1!
1A
#130000
0!
0A
#130500
1!
1A
#131000
0!
0A
#131500
1!
1A
#132000
0!
0A
#132500
1!
1A
#133000
0!
0A
#133500
1!
1A
#134000
0!
0A
#134500
1!
1A
#135000
0!
0A
#135500
1!
1A
#136000
0!
0A
#136500
1!
1A
#137000
0!
0A
#137500
1!
1A
#138000
0!
0A
#138500
1!
1A
#139000
0!
0A
#139500
1!
1A
#140000
0!
0A
#140500
1!
1A
#141000
0!
0A
#141500
1!
1A
#142000
0!
0A
#142500
1!
1A
#143000
0!
0A
#143500
1!
1A
#144000
0!
0A
#144500
1!
1A
#145000
0!
0A
#145500
1!
1A
#146000
0!
0A
#146500
1!
1A
#147000
0!
0A
#147500
1!
1A
#148000
0!
0A
#148500
1!
1A
#149000
0!
0A
#149500
1!
1A
#150000
0!
0A
#150500
1!
1A
#151000
0!
0A
#151500
1!
1A
#152000
0!
0A
#152500
1!
1A
#153000
0!
0A
#153500
1!
1A
#154000
0!
0A
#154500
1!
1A
#155000
0!
0A
#155500
1!
1A
#156000
0!
0A
#156500
1!
1A
#157000
0!
0A
#157500
1!
1A
#158000
0!
0A
#158500
1!
1A
#159000
0!
0A
#159500
1!
1A
#160000
0!
0A
#160500
1!
1A
#161000
0!
0A
#161500
1!
1A
#162000
0!
0A
#162500
1!
1A
#163000
0!
0A
#163500
1!
1A
#164000
0!
0A
#164500
1!
1A
#165000
0!
0A
#165500
1!
1A
#166000
0!
0A
#166500
1!
1A
#167000
0!
0A
#167500
1!
1A
#168000
0!
0A
#168500
1!
1A
#169000
0!
0A
#169500
1!
1A
#170000
0!
0A
#170500
1!
1A
#171000
0!
0A
#171500
1!
1A
#172000
0!
0A
#172500
1!
1A
#173000
0!
0A
#173500
1!
1A
#174000
0!
0A
#174500
1!
1A
#175000
0!
0A
#175500
1!
1A
#176000
0!
0A
#176500
1!
1A
#177000
0!
0A
#177500
1!
1A
#178000
0!
0A
#178500
1!
1A
#179000
0!
0A
#179500
1!
1A
#180000
0!
0A
#180500
1!
1A
#181000
0!
0A
#181500
1!
1A
#182000
0!
0A
#182500
1!
1A
#183000
0!
0A
#183500
1!
1A
#184000
0!
0A
#184500
1!
1A
#185000
0!
0A
#185500
1!
1A
#186000
0!
0A
#186500
1!
1A
#187000
0!
0A
#187500
1!
1A
#188000
0!
0A
#188500
1!
1A
#189000
0!
0A
#189500
1!
1A
#190000
0!
0A
#190500
1!
1A
#191000
0!
0A
#191500
1!
1A
#192000
0!
0A
#192500
1!
1A
#193000
0!
0A
#193500
1!
1A
#194000
0!
0A
#194500
1!
1A
#195000
0!
0A
#195500
1!
1A
#196000
0!
0A
#196500
1!
1A
#197000
0!
0A
#197500
1!
1A
#198000
0!
0A
#198500
1!
1A
#199000
0!
0A
#199500
1!
1A
#200000
0!
0A
#200500
1!
1A
#201000
0!
0A
#201500
1!
1A
#202000
0!
0A
#202500
1!
1A
#203000
0!
0A
#203500
1!
1A
#204000
0!
0A
#204500
1!
1A
#205000
0!
0A
#205500
1!
1A
#206000
0!
0A
#206500
1!
1A
#207000
0!
0A
#207500
1!
1A
#208000
0!
0A
#208500
1!
1A
#209000
0!
0A
#209500
1!
1A
#210000
0!
0A
#210500
1!
1A
#211000
0!
0A
#211500
1!
1A
#212000
0!
0A
#212500
1!
1A
#213000
0!
0A
#213500
1!
1A
#214000
0!
0A
#214500
1!
1A
#215000
0!
0A
#215500
1!
1A
#216000
0!
0A
#216500
1!
1A
#217000
0!
0A
#217500
1!
1A
#218000
0!
0A
#218500
1!
1A
#219000
0!
0A
#219500
1!
1A
#220000
0!
0A
#220500
1!
1A
#221000
0!
0A
#221500
1!
1A
#222000
0!
0A
#222500
1!
1A
#223000
0!
0A
#223500
1!
1A
#224000
0!
0A
#224500
1!
1A
#225000
0!
0A
#225500
1!
1A
#226000
0!
0A
#226500
1!
1A
#227000
0!
0A
#227500
1!
1A
#228000
0!
0A
#228500
1!
1A
#229000
0!
0A
#229500
1!
1A
#230000
0!
0A
#230500
1!
1A
#231000
0!
0A
#231500
1!
1A
#232000
0!
0A
#232500
1!
1A
#233000
0!
0A
#233500
1!
1A
#234000
0!
0A
#234500
1!
1A
#235000
0!
0A
#235500
1!
1A
#236000
0!
0A
#236500
1!
1A
#237000
0!
0A
#237500
1!
1A
#238000
0!
0A
#238500
1!
1A
#239000
0!
0A
#239500
1!
1A
#240000
0!
0A
#240500
1!
1A
#241000
0!
0A
#241500
1!
1A
#242000
0!
0A
#242500
1!
1A
#243000
0!
0A
#243500
1!
1A
#244000
0!
0A
#244500
1!
1A
#245000
0!
0A
#245500
1!
1A
#246000
0!
0A
#246500
1!
1A
#247000
0!
0A
#247500
1!
1A
#248000
0!
0A
#248500
1!
1A
#249000
0!
0A
#249500
1!
1A
#250000
0!
0A
#250500
1!
1A
#251000
0!
0A
#251500
1!
1A
#252000
0!
0A
#252500
1!
1A
#253000
0!
0A
#253500
1!
1A
#254000
0!
0A
#254500
1!
1A
#255000
0!
0A
#255500
1!
1A
#256000
0!
0A
#256500
1!
1A
#257000
0!
0A
#257500
1!
1A
#258000
0!
0A
#258500
1!
1A
#259000
0!
0A
#259500
1!
1A
#260000
0!
0A
#260500
1!
1A
#261000
0!
0A
#261500
1!
1A
#262000
0!
0A
#262500
1!
1A
#263000
0!
0A
#263500
1!
1A
#264000
0!
0A
#264500
1!
1A
#265000
0!
0A
#265500
1!
1A
#266000
0!
0A
#266500
1!
1A
#267000
0!
0A
#267500
1!
1A
#268000
0!
0A
#268500
1!
1A
#269000
0!
0A
#269500
1!
1A
#270000
0!
0A
#270500
1!
1A
#271000
0!
0A
#271500
1!
1A
#272000
0!
0A
#272500
1!
1A
#273000
0!
0A
#273500
1!
1A
#274000
0!
0A
#274500
1!
1A
#275000
0!
0A
#275500
1!
1A
#276000
0!
0A
#276500
1!
1A
#277000
0!
0A
#277500
1!
1A
#278000
0!
0A
#278500
1!
1A
#279000
0!
0A
#279500
1!
1A
#280000
0!
0A
#280500
1!
1A
#281000
0!
0A
#281500
1!
1A
#282000
0!
0A
#282500
1!
1A
#283000
0!
0A
#283500
1!
1A
#284000
0!
0A
#284500
1!
1A
#285000
0!
0A
#285500
1!
1A
#286000
0!
0A
#286500
1!
1A
#287000
0!
0A
#287500
1!
1A
#288000
0!
0A
#288500
1!
1A
#289000
0!
0A
#289500
1!
1A
#290000
0!
0A
#290500
1!
1A
#291000
0!
0A
#291500
1!
1A
#292000
0!
0A
#292500
1!
1A
#293000
0!
0A
#293500
1!
1A
#294000
0!
0A
#294500
1!
1A
#295000
0!
0A
#295500
1!
1A
#296000
0!
0A
#296500
1!
1A
#297000
0!
0A
#297500
1!
1A
#298000
0!
0A
#298500
1!
1A
#299000
0!
0A
#299500
1!
1A
#300000
0!
0A
#300500
1!
1A
#301000
0!
0A
#301500
1!
1A
#302000
0!
0A
#302500
1!
1A
#303000
0!
0A
#303500
1!
1A
#304000
0!
0A
#304500
1!
1A
#305000
0!
0A
#305500
1!
1A
#306000
0!
0A
#306500
1!
1A
#307000
0!
0A
#307500
1!
1A
#308000
0!
0A
#308500
1!
1A
#309000
0!
0A
#309500
1!
1A
#310000
0!
0A
#310500
1!
1A
#311000
0!
0A
#311500
1!
1A
#312000
0!
0A
#312500
1!
1A
#313000
0!
0A
#313500
1!
1A
#314000
0!
0A
#314500
1!
1A
#315000
0!
0A
#315500
1!
1A
#316000
0!
0A
#316500
1!
1A
#317000
0!
0A
#317500
1!
1A
#318000
0!
0A
#318500
1!
1A
#319000
0!
0A
#319500
1!
1A
#320000
0!
0A
#320500
1!
1A
#321000
0!
0A
#321500
1!
1A
#322000
0!
0A
#322500
1!
1A
#323000
0!
0A
#323500
1!
1A
#324000
0!
0A
#324500
1!
1A
#325000
0!
0A
#325500
1!
1A
#326000
0!
0A
#326500
1!
1A
#327000
0!
0A
#327500
1!
1A
#328000
0!
0A
#328500
1!
1A
#329000
0!
0A
#329500
1!
1A
#330000
0!
0A
#330500
1!
1A
#331000
0!
0A
#331500
1!
1A
#332000
0!
0A
#332500
1!
1A
#333000
0!
0A
#333500
1!
1A
#334000
0!
0A
#334500
1!
1A
#335000
0!
0A
#335500
1!
1A
#336000
0!
0A
#336500
1!
1A
#337000
0!
0A
#337500
1!
1A
#338000
0!
0A
#338500
1!
1A
#339000
0!
0A
#339500
1!
1A
#340000
0!
0A
#340500
1!
1A
#341000
0!
0A
#341500
1!
1A
#342000
0!
0A
#342500
1!
1A
#343000
0!
0A
#343500
1!
1A
#344000
0!
0A
#344500
1!
1A
#345000
0!
0A
#345500
1!
1A
#346000
0!
0A
#346500
1!
1A
#347000
0!
0A
#347500
1!
1A
#348000
0!
0A
#348500
1!
1A
#349000
0!
0A
#349500
1!
1A
#350000
0!
0A
#350500
1!
1A
#351000
0!
0A
#351500
1!
1A
#352000
0!
0A
#352500
1!
1A
#353000
0!
0A
#353500
1!
1A
#354000
0!
0A
#354500
1!
1A
#355000
0!
0A
#355500
1!
1A
#356000
0!
0A
#356500
1!
1A
#357000
0!
0A
#357500
1!
1A
#358000
0!
0A
#358500
1!
1A
#359000
0!
0A
#359500
1!
1A
#360000
0!
0A
#360500
1!
1A
#361000
0!
0A
#361500
1!
1A
#362000
0!
0A
#362500
1!
1A
#363000
0!
0A
#363500
1!
1A
#364000
0!
0A
#364500
1!
1A
#365000
0!
0A
#365500
1!
1A
#366000
0!
0A
#366500
1!
1A
#367000
0!
0A
#367500
1!
1A
#368000
0!
0A
#368500
1!
1A
#369000
0!
0A
#369500
1!
1A
#370000
0!
0A
#370500
1!
1A
#371000
0!
0A
#371500
1!
1A
#372000
0!
0A
#372500
1!
1A
#373000
0!
0A
#373500
1!
1A
#374000
0!
0A
#374500
1!
1A
#375000
0!
0A
#375500
1!
1A
#376000
0!
0A
#376500
1!
1A
#377000
0!
0A
#377500
1!
1A
#378000
0!
0A
#378500
1!
1A
#379000
0!
0A
#379500
1!
1A
#380000
0!
0A
#380500
1!
1A
#381000
0!
0A
#381500
1!
1A
#382000
0!
0A
#382500
1!
1A
#383000
0!
0A
#383500
1!
1A
#384000
0!
0A
#384500
1!
1A
#385000
0!
0A
#385500
1!
1A
#386000
0!
0A
#386500
1!
1A
#387000
0!
0A
#387500
1!
1A
#388000
0!
0A
#388500
1!
1A
#389000
0!
0A
#389500
1!
1A
#390000
0!
0A
#390500
1!
1A
#391000
0!
0A
#391500
1!
1A
#392000
0!
0A
#392500
1!
1A
#393000
0!
0A
#393500
1!
1A
#394000
0!
0A
#394500
1!
1A
#395000
0!
0A
#395500
1!
1A
#396000
0!
0A
#396500
1!
1A
#397000
0!
0A
#397500
1!
1A
#398000
0!
0A
#398500
1!
1A
#399000
0!
0A
#399500
1!
1A
#400000
0!
0A
#400500
1!
1A
#401000
0!
0A
#401500
1!
1A
#402000
0!
0A
#402500
1!
1A
#403000
0!
0A
#403500
1!
1A
#404000
0!
0A
#404500
1!
1A
#405000
0!
0A
#405500
1!
1A
#406000
0!
0A
#406500
1!
1A
#407000
0!
0A
#407500
1!
1A
#408000
0!
0A
#408500
1!
1A
#409000
0!
0A
#409500
1!
1A
#410000
0!
0A
#410500
1!
1A
#411000
0!
0A
#411500
1!
1A
#412000
0!
0A
#412500
1!
1A
#413000
0!
0A
#413500
1!
1A
#414000
0!
0A
#414500
1!
1A
#415000
0!
0A
#415500
1!
1A
#416000
0!
0A
#416500
1!
1A
#417000
0!
0A
#417500
1!
1A
#418000
0!
0A
#418500
1!
1A
#419000
0!
0A
#419500
1!
1A
#420000
0!
0A
#420500
1!
1A
#421000
0!
0A
#421500
1!
1A
#422000
0!
0A
#422500
1!
1A
#423000
0!
0A
#423500
1!
1A
#424000
0!
0A
#424500
1!
1A
#425000
0!
0A
#425500
1!
1A
#426000
0!
0A
#426500
1!
1A
#427000
0!
0A
#427500
1!
1A
#428000
0!
0A
#428500
1!
1A
#429000
0!
0A
#429500
1!
1A
#430000
0!
0A
#430500
1!
1A
#431000
0!
0A
#431500
1!
1A
#432000
0!
0A
#432500
1!
1A
#433000
0!
0A
#433500
1!
1A
#434000
0!
0A
#434500
1!
1A
#435000
0!
0A
#435500
1!
1A
#436000
0!
0A
#436500
1!
1A
#437000
0!
0A
#437500
1!
1A
#438000
0!
0A
#438500
1!
1A
#439000
0!
0A
#439500
1!
1A
#440000
0!
0A
#440500
1!
1A
#441000
0!
0A
#441500
1!
1A
#442000
0!
0A
#442500
1!
1A
#443000
0!
0A
#443500
1!
1A
#444000
0!
0A
#444500
1!
1A
#445000
0!
0A
#445500
1!
1A
#446000
0!
0A
#446500
1!
1A
#447000
0!
0A
#447500
1!
1A
#448000
0!
0A
#448500
1!
1A
#449000
0!
0A
#449500
1!
1A
#450000
0!
0A
#450500
1!
1A
#451000
0!
0A
#451500
1!
1A
#452000
0!
0A
#452500
1!
1A
#453000
0!
0A
#453500
1!
1A
#454000
0!
0A
#454500
1!
1A
#455000
0!
0A
#455500
1!
1A
#456000
0!
0A
#456500
1!
1A
#457000
0!
0A
#457500
1!
1A
#458000
0!
0A
#458500
1!
1A
#459000
0!
0A
#459500
1!
1A
#460000
0!
0A
#460500
1!
1A
#461000
0!
0A
#461500
1!
1A
#462000
0!
0A
#462500
1!
1A
#463000
0!
0A
#463500
1!
1A
#464000
0!
0A
#464500
1!
1A
#465000
0!
0A
#465500
1!
1A
#466000
0!
0A
#466500
1!
1A
#467000
0!
0A
#467500
1!
1A
#468000
0!
0A
#468500
1!
1A
#469000
0!
0A
#469500
1!
1A
#470000
0!
0A
#470500
1!
1A
#471000
0!
0A
#471500
1!
1A
#472000
0!
0A
#472500
1!
1A
#473000
0!
0A
#473500
1!
1A
#474000
0!
0A
#474500
1!
1A
#475000
0!
0A
#475500
1!
1A
#476000
0!
0A
#476500
1!
1A
#477000
0!
0A
#477500
1!
1A
#478000
0!
0A
#478500
1!
1A
#479000
0!
0A
#479500
1!
1A
#480000
0!
0A
#480500
1!
1A
#481000
0!
0A
#481500
1!
1A
#482000
0!
0A
#482500
1!
1A
#483000
0!
0A
#483500
1!
1A
#484000
0!
0A
#484500
1!
1A
#485000
0!
0A
#485500
1!
1A
#486000
0!
0A
#486500
1!
1A
#487000
0!
0A
#487500
1!
1A
#488000
0!
0A
#488500
1!
1A
#489000
0!
0A
#489500
1!
1A
#490000
0!
0A
#490500
1!
1A
#491000
0!
0A
#491500
1!
1A
#492000
0!
0A
#492500
1!
1A
#493000
0!
0A
#493500
1!
1A
#494000
0!
0A
#494500
1!
1A
#495000
0!
0A
#495500
1!
1A
#496000
0!
0A
#496500
1!
1A
#497000
0!
0A
#497500
1!
1A
#498000
0!
0A
#498500
1!
1A
#499000
0!
0A
#499500
1!
1A
#500000
0!
0A
#500500
1!
1A
#501000
0!
0A
#501500
1!
1A
#502000
0!
0A
#502500
1!
1A
#503000
0!
0A
#503500
1!
1A
#504000
0!
0A
#504500
1!
1A
#505000
0!
0A
#505500
1!
1A
#506000
0!
0A
#506500
1!
1A
#507000
0!
0A
#507500
1!
1A
#508000
0!
0A
#508500
1!
1A
#509000
0!
0A
#509500
1!
1A
#510000
0!
0A
#510500
1!
1A
#511000
0!
0A
#511500
1!
1A
#512000
0!
0A
#512500
1!
1A
#513000
0!
0A
#513500
1!
1A
#514000
0!
0A
#514500
1!
1A
#515000
0!
0A
#515500
1!
1A
#516000
0!
0A
#516500
1!
1A
#517000
0!
0A
#517500
1!
1A
#518000
0!
0A
#518500
1!
1A
#519000
0!
0A
#519500
1!
1A
#520000
0!
0A
#520500
1!
1A
#521000
0!
0A
#521500
1!
1A
#522000
0!
0A
#522500
1!
1A
#523000
0!
0A
#523500
1!
1A
#524000
0!
0A
#524500
1!
1A
#525000
0!
0A
#525500
1!
1A
#526000
0!
0A
#526500
1!
1A
#527000
0!
0A
#527500
1!
1A
#528000
0!
0A
#528500
1!
1A
#529000
0!
0A
#529500
1!
1A
#530000
0!
0A
#530500
1!
1A
#531000
0!
0A
#531500
1!
1A
#532000
0!
0A
#532500
1!
1A
#533000
0!
0A
#533500
1!
1A
#534000
0!
0A
#534500
1!
1A
#535000
0!
0A
#535500
1!
1A
#536000
0!
0A
#536500
1!
1A
#537000
0!
0A
#537500
1!
1A
#538000
0!
0A
#538500
1!
1A
#539000
0!
0A
#539500
1!
1A
#540000
0!
0A
#540500
1!
1A
#541000
0!
0A
#541500
1!
1A
#542000
0!
0A
#542500
1!
1A
#543000
0!
0A
#543500
1!
1A
#544000
0!
0A
#544500
1!
1A
#545000
0!
0A
#545500
1!
1A
#546000
0!
0A
#546500
1!
1A
#547000
0!
0A
#547500
1!
1A
#548000
0!
0A
#548500
1!
1A
#549000
0!
0A
#549500
1!
1A
#550000
0!
0A
#550500
1!
1A
#551000
0!
0A
#551500
1!
1A
#552000
0!
0A
#552500
1!
1A
#553000
0!
0A
#553500
1!
1A
#554000
0!
0A
#554500
1!
1A
#555000
0!
0A
#555500
1!
1A
#556000
0!
0A
#556500
1!
1A
#557000
0!
0A
#557500
1!
1A
#558000
0!
0A
#558500
1!
1A
#559000
0!
0A
#559500
1!
1A
#560000
0!
0A
#560500
1!
1A
#561000
0!
0A
#561500
1!
1A
#562000
0!
0A
#562500
1!
1A
#563000
0!
0A
#563500
1!
1A
#564000
0!
0A
#564500
1!
1A
#565000
0!
0A
#565500
1!
1A
#566000
0!
0A
#566500
1!
1A
#567000
0!
0A
#567500
1!
1A
#568000
0!
0A
#568500
1!
1A
#569000
0!
0A
#569500
1!
1A
#570000
0!
0A
#570500
1!
1A
#571000
0!
0A
#571500
1!
1A
#572000
0!
0A
#572500
1!
1A
#573000
0!
0A
#573500
1!
1A
#574000
0!
0A
#574500
1!
1A
#575000
0!
0A
#575500
1!
1A
#576000
0!
0A
#576500
1!
1A
#577000
0!
0A
#577500
1!
1A
#578000
0!
0A
#578500
1!
1A
#579000
0!
0A
#579500
1!
1A
#580000
0!
0A
#580500
1!
1A
#581000
0!
0A
#581500
1!
1A
#582000
0!
0A
#582500
1!
1A
#583000
0!
0A
#583500
1!
1A
#584000
0!
0A
#584500
1!
1A
#585000
0!
0A
#585500
1!
1A
#586000
0!
0A
#586500
1!
1A
#587000
0!
0A
#587500
1!
1A
#588000
0!
0A
#588500
1!
1A
#589000
0!
0A
#589500
1!
1A
#590000
0!
0A
#590500
1!
1A
#591000
0!
0A
#591500
1!
1A
#592000
0!
0A
#592500
1!
1A
#593000
0!
0A
#593500
1!
1A
#594000
0!
0A
#594500
1!
1A
#595000
0!
0A
#595500
1!
1A
#596000
0!
0A
#596500
1!
1A
#597000
0!
0A
#597500
1!
1A
#598000
0!
0A
#598500
1!
1A
#599000
0!
0A
#599500
1!
1A
#600000
0!
0A
#600500
1!
1A
#601000
0!
0A
#601500
1!
1A
#602000
0!
0A
#602500
1!
1A
#603000
0!
0A
#603500
1!
1A
#604000
0!
0A
#604500
1!
1A
#605000
0!
0A
#605500
1!
1A
#606000
0!
0A
#606500
1!
1A
#607000
0!
0A
#607500
1!
1A
#608000
0!
0A
#608500
1!
1A
#609000
0!
0A
#609500
1!
1A
#610000
0!
0A
#610500
1!
1A
#611000
0!
0A
#611500
1!
1A
#612000
0!
0A
#612500
1!
1A
#613000
0!
0A
#613500
1!
1A
#614000
0!
0A
#614500
1!
1A
#615000
0!
0A
#615500
1!
1A
#616000
0!
0A
#616500
1!
1A
#617000
0!
0A
#617500
1!
1A
#618000
0!
0A
#618500
1!
1A
#619000
0!
0A
#619500
1!
1A
#620000
0!
0A
#620500
1!
1A
#621000
0!
0A
#621500
1!
1A
#622000
0!
0A
#622500
1!
1A
#623000
0!
0A
#623500
1!
1A
#624000
0!
0A
#624500
1!
1A
#625000
0!
0A
#625500
1!
1A
#626000
0!
0A
#626500
1!
1A
#627000
0!
0A
#627500
1!
1A
#628000
0!
0A
#628500
1!
1A
#629000
0!
0A
#629500
1!
1A
#630000
0!
0A
#630500
1!
1A
#631000
0!
0A
#631500
1!
1A
#632000
0!
0A
#632500
1!
1A
#633000
0!
0A
#633500
1!
1A
#634000
0!
0A
#634500
1!
1A
#635000
0!
0A
#635500
1!
1A
#636000
0!
0A
#636500
1!
1A
#637000
0!
0A
#637500
1!
1A
#638000
0!
0A
#638500
1!
1A
#639000
0!
0A
#639500
1!
1A
#640000
0!
0A
#640500
1!
1A
#641000
0!
0A
#641500
1!
1A
#642000
0!
0A
#642500
1!
1A
#643000
0!
0A
#643500
1!
1A
#644000
0!
0A
#644500
1!
1A
#645000
0!
0A
#645500
1!
1A
#646000
0!
0A
#646500
1!
1A
#647000
0!
0A
#647500
1!
1A
#648000
0!
0A
#648500
1!
1A
#649000
0!
0A
#649500
1!
1A
#650000
0!
0A
#650500
1!
1A
#651000
0!
0A
#651500
1!
1A
#652000
0!
0A
#652500
1!
1A
#653000
0!
0A
#653500
1!
1A
#654000
0!
0A
#654500
1!
1A
#655000
0!
0A
#655500
1!
1A
#656000
0!
0A
#656500
1!
1A
#657000
0!
0A
#657500
1!
1A
#658000
0!
0A
#658500
1!
1A
#659000
0!
0A
#659500
1!
1A
#660000
0!
0A
#660500
1!
1A
#661000
0!
0A
#661500
1!
1A
#662000
0!
0A
#662500
1!
1A
#663000
0!
0A
#663500
1!
1A
#664000
0!
0A
#664500
1!
1A
#665000
0!
0A
#665500
1!
1A
#666000
0!
0A
#666500
1!
1A
#667000
0!
0A
#667500
1!
1A
#668000
0!
0A
#668500
1!
1A
#669000
0!
0A
#669500
1!
1A
#670000
0!
0A
#670500
1!
1A
#671000
0!
0A
#671500
1!
1A
#672000
0!
0A
#672500
1!
1A
#673000
0!
0A
#673500
1!
1A
#674000
0!
0A
#674500
1!
1A
#675000
0!
0A
#675500
1!
1A
#676000
0!
0A
#676500
1!
1A
#677000
0!
0A
#677500
1!
1A
#678000
0!
0A
#678500
1!
1A
#679000
0!
0A
#679500
1!
1A
#680000
0!
0A
#680500
1!
1A
#681000
0!
0A
#681500
1!
1A
#682000
0!
0A
#682500
1!
1A
#683000
0!
0A
#683500
1!
1A
#684000
0!
0A
#684500
1!
1A
#685000
0!
0A
#685500
1!
1A
#686000
0!
0A
#686500
1!
1A
#687000
0!
0A
#687500
1!
1A
